-992
-992
-976 8
24 -8 -8 -8 912
-8 -16 -24 -32 328 -32 -24 -16 -8 432
376 -80 -160 352
-8 -8 -8 -8 -8 -8 -8 -8 -8 -8 -8 -8 -8 -8 8 -8 -8 -8 -8 -8 -8 -8 -8 -8 -8 -8 -8 -8 -8 528
-552 -24 -112 -8 8 -8 -8 -8 -8 -8 -8 -8 -8 120
848 -8 -24 88
216 -8 -24 -720
