88 -24 -24 832
-40 -40 -40 -40 -40 752
88 -40 -40 -40 -40 -40 656
136 -40 -40 -40 -40 656
-40 -88 -40 -88 -40 656
-8 -8 -8 -8 928
24 -8 -40 -80 -16 -24 -32 712
-248 -240 -240 -240
992
992
992
-40 -40 896
-40 944
-40 944
-40 944
